{
  "apps" : [{
    "name"        : "my-dashboard",
    "script"      : "./bin/server.js",
    "watch"       : true,
    "env": {
      "NODE_ENV": "production"
    },
    "instances": "max",
    "exec_mode": "cluster",
    "env_production" : {
      "NODE_ENV": "production",
      "PORT": 3002,
      "APIPORT": 3003,
      "NODE_PATH": "src",
      "APIHOST": "apis.my.id",
      "UID_CLIENT": 125,
      "UID_SECRET": "wE9zEB7abrPY51q5yVdFcrWjGmvFRisqowQGQPlc",
      "UID_LOGIN": "https://u.id/oauth/authorize?client_id=125&redirect_uri=https://dashboard.my.id/callback&response_type=code&scope=basic%20email%20phone%20address_ktp%20legitimacy",
      "UID_REDIRECT_URI": "https://dashboard.my.id/callback",
      "APIURL": "https://apis.my.id/v1/"
    }
    }]
  }
